Comando Debian GNU/Linux

$ Usuaario
# Super-usuario (root)

1.  $ uname

2.  $ man uname
	$ uname -o (SO)
	$ uname -p (procesador)
	$ uname -s (Kernell)
	...

3.  $ clear (Ver tambien CONTROL+L)

4.	$ ls
	$ ls -la
	$ ls -lah

5. 	$ cd .
	$ cd ..
	$ cd /home/richart
	$ cd ../../usr/lib
	
6.	$ cd $HOME
	$ cd ~
	$ pwd
	$ /home/richart

7.	$ tree (# apt-get install tree)
	$ apt-cache search tree | more
	$ apt-cache show tree
	$ su root
	password: ********
	#
	# apt-get update
	# apt-get install tree
	# exit
	$ tree /home
	
	

	

